{
  "env": {
    "environment": "production",
    "hostname": "http://localhost:8080",
    "apiBaseUrl": "https://api.trikala.my.id/v1/",
    "apiKey": "x-api-key",
    "meta": {
      "title": "Bisa Gawe"
    }
  }
}
